<svg width="128" height="128" viewBox="0 0 128 128" fill="none" xmlns="http://www.w3.org/2000/svg">
<path d="M97.9399 8C97.9399 40 25.9399 24 25.9399 88C25.9399 112 33.9399 120 33.9399 120H41.9399C41.9399 120 29.9399 112 29.9399 88C29.9399 72 65.9399 56 65.9399 56C65.9399 56 34.0199 73.312 34.0199 89.744C84.9519 97.72 113.148 38.424 97.9359 8H97.9399Z" fill="#8DBB00"/>
</svg>
