<svg width="148" height="149" viewBox="0 0 148 149" fill="none" xmlns="http://www.w3.org/2000/svg">
<path d="M56.0131 117.096C56.0153 118.459 56.4222 119.795 57.1856 120.931L60.9241 126.5C61.5627 127.452 62.4289 128.233 63.4456 128.773C64.4623 129.313 65.598 129.596 66.7516 129.596H80.2506C81.4042 129.596 82.5399 129.313 83.5566 128.773C84.5733 128.233 85.4395 127.452 86.0781 126.5L89.8166 120.931C90.5797 119.795 90.9875 118.46 90.9891 117.096L90.9978 108.781H56.0022L56.0131 117.096ZM35 56.7502C35 66.3695 38.5984 75.1454 44.5288 81.8509C48.1425 85.9376 53.795 94.475 55.9497 101.677C55.9584 101.733 55.965 101.79 55.9737 101.846H91.0262C91.035 101.79 91.0416 101.736 91.0503 101.677C93.205 94.475 98.8575 85.9376 102.471 81.8509C108.402 75.1454 112 66.3695 112 56.7502C112 35.6363 94.6991 18.5289 73.3797 18.5939C51.065 18.6611 35 36.5816 35 56.7502ZM73.5 39.4064C63.8509 39.4064 56 47.1873 56 56.7502C56 58.6667 54.4338 60.2189 52.5 60.2189C50.5662 60.2189 49 58.6667 49 56.7502C49 43.3608 59.99 32.4689 73.5 32.4689C75.4338 32.4689 77 34.0212 77 35.9377C77 37.8542 75.4338 39.4064 73.5 39.4064Z" fill="#8DBB00"/>
</svg>
